badge_code,full_name,link
452,Sami Belhadj,https://www.linkedin.com/in/sami-belhadj/
23,Ridha ZMITRI,https://www.linkedin.com/in/rzmitri/
73,Radhouane Zahra,https://www.linkedin.com/in/radhouane-zahra-735481127/
90,Mehrez YAHMADI,https://www.linkedin.com/in/mehrez-yahmadi-19163775/
91,Bessim GAm,https://www.linkedin.com/in/bessim-gam-bb938298/
88,Zied ENNAIFER,https://www.linkedin.com/in/zied-ennaifer-93244b8/
19,Afifa MECHERGUI,https://www.linkedin.com/in/afifa-mechergui-89757485/
10,Myriam Mourali,https://www.linkedin.com/in/myriam-mourali-7698045/
130,Youssef Chelly,https://www.linkedin.com/in/youssef-chelly-aa34161b/
35,MAMLOUK HATEM,https://www.linkedin.com/in/mamlouk-hatem-2716146/
41,Mohamed BESSA,https://www.linkedin.com/in/mohamed-bessa-38710aa9/
45,Raouf Rihani,https://www.linkedin.com/in/raouf-rihani-58695b5b/
344,Nadhem BOUZIRI,https://www.linkedin.com/in/nadhem-bouziri-729b57197/
62,Hichem Fehmi,https://www.linkedin.com/in/hichem-fehmi-818a3123/
110,wafa djebbi,https://www.linkedin.com/in/wafa-djebbi-63192834/
180,Ibrahim CHELLY,https://www.linkedin.com/in/ibrahim-chelly-51bb1538/
9,Manel FOUZRI,https://www.linkedin.com/in/manelbenmaad/
123,Jbili Wafa,https://www.linkedin.com/in/jbili-wafa-74223026/
92,abdesslem jelizi,https://www.linkedin.com/in/abdesslem-jelizi-994002103/
66,Amira BEN YOUSSEF,https://www.linkedin.com/in/amira-ben-youssef-12921a32/
163,Kais MEZIOU,https://www.linkedin.com/in/kais-meziou-2272716a/
216,Emna Lakhdar,https://www.linkedin.com/in/emna-lakhdar-%F0%9F%A6%84-1a330b85/
220,Khawla Tayari,https://www.linkedin.com/in/khawla-tayari-8460b888/
304,Marwane Samouda,https://www.linkedin.com/in/marwane-samouda-1a68bb16/
349,Alaeddine BEN SALAH,https://www.linkedin.com/in/alaeddinebensalah/
352,Ghazi Sultana,https://www.linkedin.com/in/ghazi-sultana-2905b772/
361,Ali Arfa,https://www.linkedin.com/in/ali-arfa-73054329/
363,Syrine Khiari,https://www.linkedin.com/in/syrine-khiari-98481761/
556,Bahaeddine LIMEM,https://www.linkedin.com/in/bahaeddine-limem-93490415a/
372,jannene ons,https://www.linkedin.com/in/jannene-ons-000a433b/
374,Amira Bel Hadj Yahia,https://www.linkedin.com/in/amira-bel-hadj-yahia-a161416b/
373,Ben youssef Mehdi,https://www.linkedin.com/in/ben-youssef-mehdi/
377,wissem souissi,https://www.linkedin.com/in/wissem-souissi-b77a1339/
386,Youssef Boumaiza,https://www.linkedin.com/in/youssef-boumaiza-78641818/
410,Besma DHIFLAOUI,https://www.linkedin.com/in/besma-dhiflaoui-bbb364100/
418,Sofien Hamdaoui,https://www.linkedin.com/in/sofien-hamdaoui-52418576/
422,Mounir MAGHRAOUI,https://www.linkedin.com/in/mounir-maghraoui/
424,Ferdaoues OUERHANI,https://www.linkedin.com/in/ferdaoues-ouerhani-558ba1105/
436,Hela Besbes,https://www.linkedin.com/in/hela-besbes-a44682118/
441,Elyes Ben,https://www.linkedin.com/in/elyes-ben-8161258/
4,Siwar FARHAT,https://www.linkedin.com/in/siwarfarhat/
449,marwa dridi,https://www.linkedin.com/in/marwa-dridi-706461100/
450,Ahmed Boumaiza,https://www.linkedin.com/in/ahmed-boumaiza/
457,Irina Grigne,https://www.linkedin.com/in/irina-grigne-6672a494/
466,Ikram Balti,https://www.linkedin.com/in/ikram-balti-64a85557/
472,Amira hefiene,https://www.linkedin.com/in/amira-hefiene-b2917694/
468,Tesnim slama,https://www.linkedin.com/in/tesnim-slama-51a26956/
490,Mazen Farhani,https://www.linkedin.com/in/mazen-farhani-b34589148/
491,Chrigui Mehdi,https://www.linkedin.com/in/chrigui-mehdi-b42879ab/
493,Ahlem Chamakhi,https://www.linkedin.com/in/ahlem-chammakhi-mpbi/
499,Ghassen Ouni,https://www.linkedin.com/in/ghassen-ouni/
498,Hassen BEN GAMRA,https://www.linkedin.com/in/hassen-ben-gamra-13265b171/
531,Ines Mrabet,https://www.linkedin.com/in/ines-mrabet/
541,Lina Ben Rhouma,https://www.linkedin.com/in/lina-ben-rhouma-5b552415a/
540,Sarah Jaziri,https://www.linkedin.com/in/sarah-jaziri-581a346b/
511,Mohtadi Zayen,https://www.linkedin.com/in/mohtadi-zayen-b0821312/
512,Souha Becheikh,https://www.linkedin.com/in/souha-becheikh/
518,Meher Jebali,https://www.linkedin.com/in/meherjebali/
519,Houcein Tatay,https://www.linkedin.com/in/houcein-tatay/
525,Habib Fehmi,https://www.linkedin.com/in/habib-fehmi-7b4615134/
529,Sameh Ayari,https://www.linkedin.com/in/sameh-ayari-1352b213b/
533,Marie-Gabrielle du Rusquec,https://www.linkedin.com/in/marie-gabrielle-du-rusquec-90503528/
534,Sawssen Lahmedi,https://www.linkedin.com/in/sawssen-lahmedi-98160410b/
542,Akram ALLANI,https://www.linkedin.com/in/akram-allani-87846061/
4,Siwar FARHAT,https://www.linkedin.com/in/siwarfarhat/
549,Dhekra Chikhaoui,https://www.linkedin.com/in/dhekra-chikhaoui-b4a576b4/
548,Sami Bouzayani,https://www.linkedin.com/in/samibouzayani/
545,Hajer Hssouna,https://www.linkedin.com/in/hajer-hssouna-5b869014b/
546,Emir Aridhi,https://www.linkedin.com/in/emir-aridhi-5976a6143/
547,Rania Brini,https://www.linkedin.com/in/rania-brini-311b9a13b/
553,Rabeb Slimani,https://www.linkedin.com/in/rabeb-slimani-227474157/
552,Nesrine Mechim,https://www.linkedin.com/in/nesrine-mechim-628016a6/
554,Yosr Ghraiba,https://www.linkedin.com/in/yosr-ghraiba-essait/
560,Oussama Touati,https://www.linkedin.com/in/oussama-touati-950307190/
562,Lamia Gharsallah,https://www.linkedin.com/in/lamia-gharsallah-9b160314/
556,Bahaeddine LIMEM,https://www.linkedin.com/in/bahaeddine-limem-93490415a/
567,Rym Ben Zakour,https://www.linkedin.com/in/rym-ben-zakour-41647b/
568,Syrine Liouene,https://www.linkedin.com/in/syrine-liouene-861193106/
574,Rami Frikha,https://www.linkedin.com/in/rami-frikha-a7270632/
573,Oussama Msadek,https://www.linkedin.com/in/oussama-msadek/
572,amira baatout,https://www.linkedin.com/in/amira-baatout-59a3a9171/
571,Syrine Bouraoui,https://www.linkedin.com/in/syrine-bouraoui-68863510a/
569,salma khouladi,https://www.linkedin.com/in/salma-khouladi/
579,Sameh ouerghi,https://www.linkedin.com/in/sameh-ouerghi-822282165/
578,Nadia Ben Salah,https://www.linkedin.com/in/nadia-ben-salah-5b022315b/
577,Sarah KAABI,https://www.linkedin.com/in/talentacquisition-it08b49b5a/
583,Mohamed Ben Lassoued,https://www.linkedin.com/in/mohamed-ben-lassoued-089675b2/
589,Fahed Mahfoudhi,https://www.linkedin.com/in/fahed-mahfoudhi/
