Compétence / Collaborateur,SSAS,Keras,Java,Business Intelligence,Microsoft Dynamics,ITIL,ETL,Test & Validation,SSRS,JEE,Recrutement,Conception,Salesforce,Modélisation mathématique,Communication,Prédiction,QlikView,QlikSense,T-SQL,Cognos,Siebel,C#,C++,Microsoft Office,TFS,Information Security,TensorFlow,React.js,Oracle,Team Management,Crystal Reports,C,Télécommunications,Project Management,Outils de veille stratégique,Bootstrap,BizTalk,SQL,MySQL,.NET,Power BI,Informatica,PHP,Business Objects,Administration des systèmes,Tableau Software,SSIS,Software Engineering,Quality Analysis,CSS,Business Analytics,Agile,Consulting,Cloud Computing,HTML,Web,JavaScript,Scrum,Text Mining,Spring,SAS,XSLT,ML,SAP BW,Python,Business Analysis,Big data,Linux,Management,R,Angular,REST,SAP BO,Data Management,SAP IDT,MTM,Maintenance et réparation,Service d'assistance,Network Administration
452,,,,.,,,,,,,,,,,,,,,,,,,,,,,,,,.,,,,.,,,,,,,,,,,,,,,,,,,,,,,,,,,,,,,,,,,,,,,,,,,,,
23,,,,.,,,.,,,,,,,,,,,,,.,,,,,,,,,,,,,,,,,,,,,,,,,,,,,,,,,,,,,,,,,,,,,,,,,,,,,,,,,,,
73,.,,,.,,,,,.,,,,,,,,,,.,,,,,,,,,,,,,,,.,,,,.,.,,,,,,,,.,,,,,,,,,,,,,,,,,,,,,,,,,,,,,,,,
90,,,,,,,.,,,,,,,,,,,,,,,,,,,,,,.,,,,,,,,,,,,,.,,,,,,,,,,,,,,,,,,,,,,,,,,,,,,,,,,,,,
91,.,,,.,,,,,.,,,,,,,,,,.,,,,,,,,,,,,,,,,,,,.,.,,,,,,,,.,,,,,,,,,,,,,,,,,,,,,,,,,,,,,,,,
88,,,,.,,,,,,,,,,,,,,,,,,,,,,,,,.,,,,,,,,,,,,,,,,,,,,,,,,,,,,,,,,,,,,,,,,,,,,,,,,,,
10,,,,.,.,,,,,,,,,,,,,,,,,,,,,,,,,,,,,,,,,,,,,,,,,,,,,,,,,.,,,,,,,,,,,,,,,,,,,,,,,,,
130,.,,,,,.,,,.,,,,,,,,,,.,,,,,,,,,,,,,,,,,,,.,.,,,,,,,,.,,,,,,,,,,,,,,,,,,,,,,,,,,,,,,,,
41,,,,.,,,,,,,,,,,,,,,,,,,,,,,,,,,,,,.,,,,,,,,,,,,,,,,,,,,,,,,,,,,,,,,,,,,,,,,,,,,,
45,,,,,,,,,,,,,,,,,,,,,,,,,,,,,,,,,,,,,,.,,,,,,,,,.,,,,,,.,,,,,,,,,,,,,,,,,,,,,,,,,,
344,,,,,,,,.,,,,,,,,,,,,,,,,,,,,,,,,,,,,,,,,,,,,,,,,,,,,,,,,,,.,,,,,,,,,,,,,,,,,,,,,
62,.,,,.,,,.,,,,,,,,,,,,,,,,,,,,,,,,,,,,,,,,,,,,,,,,,,,,,,,,,,,,,,.,,,,,,,,,,,,,,,,,,
110,,,,,,,,,,,,,,,,,,,,,,,,,,,,,,.,,,,.,,,,,,,,,,,,,,,,,,,,,,,,,,,,,,,,,,,.,,,,,.,,,,,
180,.,,,.,,,,,.,,,,,,,,,,.,.,,,,,,,,,,,,,,,,,,.,.,,,,,,,,.,,,,,,,,,,,,,,,,,,,,,,,,,,,,,,,,
9,,,,,,,,,,,,,,,,,,,,,,,,.,,,,,,.,,,,.,,,,,,,,,,,,,,,,,,,,,,,,,,,,,,,,,,,.,,,,,.,,,,,
123,.,,,,,,,,,,.,,,,,,,,,,,,,,,,,,,,,,,,,,,,,,,,,,,,,,,,,,,,,,,,,,.,,,,,,,,,,,,,.,,,,,
66,.,,,,,,,,.,,,,,,,,,,.,,,,,,,,,,,.,,,,.,,,,.,.,,,,,,,,.,,,,,,,,,,,,,,,,,,,,,,,,,,,,,,,,
163,,,,,,,,,,,,,,,,,,,,,,,.,,,,,,,,,,,.,,,,.,,,,,,,,,,,,,,,,,,,,,,,,,,,,,,,,,,,,,,,,,
216,,,,,,,,,,,,,,,,,,,,,,,,.,,,,,,.,,,,.,,,,,,,,,,,,,,,,,,,,,,,,,,,,,,,,,,,.,,,,,.,,,,,
304,,,,,.,,,,,,,,,,,,,,,,,,,,,,,,,,,,.,,,,,,,,,,,,,,,,,,,,.,,,,,,,,,,,,,,,,,,,,,,,,,,
349,,,,,,,,,,,,.,,,,,,,,,,.,,,,,,,,,,,,,,,,,,,,,,,,,,,,,,,,,,.,,,,,,,,,,,,,,,,,,,,,,,
352,.,,,,,,,,.,,,.,,,,,,,.,,,,,,,,,,.,,,,,,,,,.,.,,,,,,,,.,,,,,,,,,,,,,,,,,,,,,,,,,,,,,,,,
361,,,,,,,,.,,,,,,,,,,,,,,,,,.,,,,,,,,,,,,,,,,,,,,,,,,,,,,,,,,,,,,,,,,,,,,,,,,,,,.,,,
363,,,,,,,,,,,,,,,,,,,,,,.,,,,,,,,,,,,,,,.,,,.,,,,,,,,,,,,,,,,,,,,,,,,,,,,,,,,,,,,,,,
556,,,.,,,,,,,.,,,,,,,,,,,,,,,,,,.,,,,,,,,,,,,,,,,,,,,,,,,,,,,,.,,,,,,,,,,,,,,.,,,,,,,,
372,,,.,,,,,,,.,,,,,,,,,,,,,,,,,,,,,,,,,,,,,.,,,,.,,,,,,,,,,,,,,.,,,,,,,,,,,,,,,,,,,,,,
374,,,,,,,,,,,,,,,,,,,,,,,,,,,,,,,,,,,,,,,,.,,,,,,,,,,,,,,,.,,.,,,,,,,,,,,,,,,,,,,,,,
373,,,,,,,,,,,,,,,,,,,,,,,,,,,,,,,,,,,,,,,,,,,,,,,,,,.,,,,,.,,,.,,,,,,,,,,,,,,,,,,,,,
377,,,,,,,,,,,,,,,,,,,,,,.,,,,,,,,,,,,,,,,,,.,,,,,,,,,,,,,,,,,,,,,,.,,,,,,,,,,,,,,,,,
386,.,,,,,,,,.,,,,,,,,,,.,,,.,,,,,,,,,,,,,,,,.,.,.,,,,,,,.,,,,,,,,,,,,,,,,,,,,,,,,,,,,,,,,
410,.,,,,,,,,.,,,,,,,,,,.,,,,,.,,,,,,,,,,,,,,.,.,,,,,,,,.,,,,,,,,,,,,,,,,,,,,,,,,,,,,,,,,
418,,,,.,,,,,,,,,,,,,,,,,,,,,,,,,,,,,,,,,,.,,,,,,,,,,,,,,,,,,,,,,,,,,,,,,,,,,,,,,,,,
422,,,,,.,,,,,,,,,,,,,,,,,,,,,,,,,,,,,,,,,.,,.,,,,,,,,,,,,,,,,,,,,,,,,,,,,,,,,,,,,,,,
424,,,,,,,,,,,.,,,,.,,,,,,,,,,,,,,,,,,,,,,,,,,,,,,,,,,,,,,,,,,,,,,,,,,,,,,,,,,,,,,,,
436,,,,,,,,,,,,,,,,,.,.,,,,,,,,,,,,,,,,,,,,,,,,,,,,.,,,,,,,,,,,,,,,,,,,,,,,,,,,,,,,,,
4,,,,,,,,,,,,,,,,,,,,,,,,,,,,,,.,,,.,,,,,,,,,,,,,,,,,,,,,,,,,,,,,,,,,,,,,,,,,,,,,,
449,,,.,,,,,,,.,,,,,,,,,,,,,,,,,,,,,,,,,,,,,,,,,,,,,,.,,,,,,,,,.,,,,,,,,,,,,,,,,,,,,,,
450,,,,,,,,,,,,,,,,,,,,,,,,,,.,,,,,,,,,,,,,,,,,,,.,,,,,,,,,,,,,,,,,,,,,,,,,,,,,,,,,,.
466,,,,,,,,,,,,,,,,,,,,,,,,,,,,,,,,,,,,,,,,,,,,,,,,,,,,,,,,,,,,,,,,,,,,,,,,,,,,,.,,
472,,,,,.,,,,,,,,,,,,,,,,,.,,,,,,,,,,,,,,,,,,.,,,,,,,,,,,,,,,,,,,,,,,,,,,,,,,,,,,,,,,
468,,,,,,,,,,,,,,,,,,,,,,,,,,,,,,,,,,,,,,,,,,,,,.,,,.,,,,,,,,.,,,,,,,,,,,,,,,,,,,,,,,
490,,,,.,,,,,,,,,,,,,,,,,,,,,,,,,,,,,,,,,,,,,,,,,,,,,,,,,,,,,,,,,,,,,,,,,,,,,.,,.,,,,
491,,,,,.,,,.,,,.,,,,.,,,,,.,,.,.,,,,,,,,.,.,,,,,,,,.,,.,,,.,,,,,.,,,.,.,,,,,,,,,,,,,,,,,,,,,,,,,
493,,,,,,,,,.,,,,,,,,,,,,,,,,,,,,,,,,,,,,,,,,.,,,,,,,,.,,,,,,,,,,,,,,,,,,,,,,,,,,,,,,
499,,,,,,,,,.,,,,,,,,,,,,,,,,,,,,,,,,,,,,,,,,,,,,,,.,,,,.,,,,,,,,,,,,,,,,,,,,,,,,,,,,
531,,,.,,.,,,,,.,.,,,,.,,,,,.,,.,.,,,,,,,,.,.,,,,,,,,.,,.,,,.,,,,,.,,,.,.,,,.,,,,,,,,,,,,,,,,,,,,,,
541,,,,,,,,,,,,,,,,,,,,,,,,,,,,,,,,,,,,,,.,,,,,,,,,,,,,,,,,,,,,,,,,,.,,,.,,,,,,,,,,,,
540,,,.,,,,,,,.,,,,,,,,,,,,,,,,,,,,,,,,,,,,.,,,,,,,,,,,,,,,,,,,.,,,,,,,,,,,,,,,,,,,,,,
511,,,.,,,,,,,.,,,,,,,,,,,,,,,,,,,,,,,,,,,,,,,,,,,,,,,,,,,,,,,.,.,,,,,,,,,,.,,,,,,,,,,,
512,,,.,,,,,,,.,,,,,,,,,,,,,,,,,,,,,,,,,,,,,,,,,,,,,,,,,,,,,,,.,,,,,,,,,,,.,,,,,,,,,,,
519,,,,,,,,,,,,,,,.,,,,,,,,,,,,,,,,,,,,,,,,,,,,,,,,,,,,,,,,,,,,,,,,,,,,,,,,,,,,,,,,
525,,,,,.,,,,.,,.,,,,,,,,,,,,,,,,,.,,,.,,,,,,,,,,,,,,,,,,,,,,,,,,,,.,,,,.,,,,,,,.,,.,,,,,,,
529,,,.,,,,,,,.,,,,,,,,,,,,.,,,,,,,,,,,,,,,,,,,,,,,,,,,,,,,,,,,.,,,,,,,,.,,,,,,,,,,,,,,
533,,,,,,,,,,,,,,,.,,,,,,,,,,,,,,,,,,,.,,,,,,,,,,,,,,,,,,,,,,,,,,,,,,,,,,,,,,,,,,,,,
534,,,,,,,,,,,,,.,,,,,,,,.,,,,,,,,.,,,,,,,,,,,,,,,,,,,,,,,,,,,,,,,,,,,,,,,,,,,,,,,,,,
542,,,,.,,,,,,,,,,,,,,,,,,,,,,,,,,,.,,,,,,,.,,,,,,,,,,,,,,,,,,,,,,,,,,,,,,,,,,,,,,,,,
4,,,,,,,,,,,,,,,,,,,,,,,,,,,,,,.,,,.,,,,,,,,,,,,,,,,,,,,,,,,,,,,,,,,,,,,,,,,,,,,,,
549,.,,,,,,,,,,,,,,,,,,,,,,,,,,,,,,,,,,,,,,,,.,,,,,,.,,,,,,,,,,,,,,,,,,,,,,,,,,,,,,,,
548,,,,,,,,,,,,,,,,,,,,,,,,,,,,,,.,,,,.,,,,,,,,,,,,,,,,,,,,,,,,,,,,,,,,,,,,,,,,,,,,,
545,,,,,,,,,,,,,,,,,.,,,,,,,.,,,,,,,,,,,,,,,,,,,,,,,,,,,,,,,,,,,,,,,,,,.,,,,,,,,,,,,,
546,,,.,,,,,,,.,,,,,,,,,,,,,.,,,,,,,,,,,,,,,,,,,,,,,,,,,,,,,,.,,.,,,,,,,,,,,,,,,,,,,,,,
547,,,,,,,,,,,,,,,,,,,,,,,,,,,,,,,,,,,,,,,,,,,,.,,,,,,,,,,,,,,,,,,,,,,,,,,,,,,,,,,,
554,,,,,,,,,,,,,,,,,,,,,,,,.,,,,,,.,,,,.,,,,,,,,,,,,,,,,,,,,,,,,,,,,,,,,,,,.,,,,,.,,,,,
560,,,,.,,,,,,,,,,,,,,,,,,,,,,,,,,,,,,,.,,,,,,,,,,,,,,,,.,,,,,,,,,,,,,,,,,,,,,,,,,,,,
562,,,,,,,,,,,,,,,,,,,,,,,,,,,,,,.,,,,.,,,,,,,,,,,,,,,,,,,,,,,,,,,,,,,,,,,.,,,,,.,,,,,
556,,,.,,,,,,,.,,,,,,,,,,,,,,,,,,.,,,,,,,,,,,,,,,,,,,,,,,,,,,,,.,,,,,,,,,,,,,,.,,,,,,,,
567,,,,,,,,,,,,,,,,,,,,,,,,,,,,,,,,,,.,,,,,,,,,,,,,,,,,,,,,,,,,,,,,,,,,,,,,,,,,,,,,
568,,,,,,,,,,,,,,.,,,,,,,,,,,,,,,,,,,,,,,,,,,,,,,,,,,,,,,,,,,,,,,,,,,,.,,,,,,,,,,,,,
574,.,,,.,,,,,,,,,,,,,,,,,,,,,,,,,,,,,,,,,,,,,.,,,,,,,,,,,,,,,,,,,,,,,,,,,,,,,,,,,,,,
573,,,,,,,,,,,,,,,,,,,.,,,,,,,,,,,,,,,,,,,,,,.,,,,,,.,,,,,,,,,,,,,,,,,,,,,,,,,,,,,,,,
572,,,,,,,,,,,,.,,,,,,,,,,,,,,,,,,,,,,.,,,,.,,,,,,,,,,,,,,,,,,,,,,,,,,,,,,,,,,,,,,,,,
571,,,,.,,,,,,,,,,,,,,,,,,,,,,,,,,,,,,,,,,,,,,,,,,,,,,,,.,,,,,,,,,,,,,,,.,,,,,,,,,,,,
569,,.,,,,,,,,,,,,,,,,,,,,,,,,,.,,,,,,,,,,,,,,,,,,,,,,,,,,,,,,,,,,,,,,.,,,,,,,,,,,,,,
579,,,,,,,,,,.,,,,,,,,,,,,,,,,,,,,,,,,,,,,,,,,,,,,,,,,,,,,,,,,,,.,,,,,,,,,,,,.,,,,,,,
578,,,,,,,,,,,,,,,,,,,,,,,,,,,,,,,,,,,,,,,,,,,,,,,,,.,,,,,,,,,,,,,,,,,.,,,,,,,,,,,,,
577,,,,,,,,,,,.,,,,,,,,,,,,,,,,,,,,,,,,,,,,,,,,,,,,,,,,,,,,,,,,,,,,,,,,,,,,,,,,,,,,
583,,,,,,,,,,,,,,,,,,,,,,.,,,,,,,,,,,,,,,,,,.,,,,,,,,,,,,,,,,,,,,,,,,,,,,,,,,,,,,,,,
589,,,,,,,,,,,,,,,,,,,,,,,,,,,,,,,,,,,,.,,.,.,,,,,,,,,,,,,,,,,,,,,,,,,,,,,,,,,,,,,,,,
